total 148
drwxr-xr-x  3 curso-116 cluster  4096 jun 13 21:15 .
drwx------ 11 curso-116 cluster  4096 jun 13 21:10 ..
-rw-r--r--  1 curso-116 cluster     0 jun 13 21:15 fechas_de_archivos.txt
drwxr-xr-x  8 curso-116 cluster  4096 jun 13 21:12 .git
-rw-r--r--  1 curso-116 cluster  2345 jun 11 20:00 numeric_password_finder.c
-rw-------  1 curso-116 cluster    53 jun  9 20:26 numeric_password_finder.e31762
-rw-------  1 curso-116 cluster     0 jun 10 16:22 numeric_password_finder.e32090
-rw-------  1 curso-116 cluster     0 jun 11 16:32 numeric_password_finder.e32782
-rw-------  1 curso-116 cluster     0 jun 11 16:35 numeric_password_finder.e32784
-rw-------  1 curso-116 cluster     0 jun 11 16:36 numeric_password_finder.e32785
-rw-------  1 curso-116 cluster     0 jun 11 16:42 numeric_password_finder.e32787
-rw-------  1 curso-116 cluster 16384 jun  9 20:11 numeric_password_finder.o31762
-rw-------  1 curso-116 cluster 12573 jun 10 16:22 numeric_password_finder.o32090
-rw-------  1 curso-116 cluster    91 jun 11 16:32 numeric_password_finder.o32782
-rw-------  1 curso-116 cluster    91 jun 11 16:35 numeric_password_finder.o32784
-rw-------  1 curso-116 cluster    93 jun 11 16:39 numeric_password_finder.o32785
-rw-------  1 curso-116 cluster    91 jun 11 16:43 numeric_password_finder.o32787
-rw-r--r--  1 curso-116 cluster   148 jun 11 20:05 numeric_password_finder.pbs
-rw-------  1 curso-116 cluster    53 jun 11 19:31 pwd10d1t1n.e32938
-rw-------  1 curso-116 cluster    53 jun 11 19:34 pwd10d1t1n.e32940
-rw-------  1 curso-116 cluster     0 jun 11 19:26 pwd10d1t1n.o32938
-rw-------  1 curso-116 cluster     0 jun 11 19:29 pwd10d1t1n.o32940
-rw-------  1 curso-116 cluster     0 jun 11 19:29 pwd10d1t1nRIGHT.e32941
-rw-------  1 curso-116 cluster    90 jun 11 19:30 pwd10d1t1nRIGHT.o32941
-rw-------  1 curso-116 cluster     0 jun 11 19:32 pwd10d2t1nRIGHT.e32945
-rw-------  1 curso-116 cluster    90 jun 11 19:32 pwd10d2t1nRIGHT.o32945
-rw-------  1 curso-116 cluster     0 jun 11 20:02 pwd10dMAXt1n.e32957
-rw-------  1 curso-116 cluster     0 jun 11 20:04 pwd10dMAXt1n.e32960
-rw-------  1 curso-116 cluster 14511 jun 11 20:03 pwd10dMAXt1n.o32957
-rw-------  1 curso-116 cluster 14511 jun 11 20:04 pwd10dMAXt1n.o32960
-rw-------  1 curso-116 cluster     0 jun 11 20:06 pwd11dMAXt2n1ppn.e32963
-rw-------  1 curso-116 cluster 15024 jun 11 20:09 pwd11dMAXt2n1ppn.o32963
-rw-------  1 curso-116 cluster    51 jun 11 19:13 pwd12d8192t1m1n.e32936
-rw-------  1 curso-116 cluster     0 jun 11 19:12 pwd12d8192t1m1n.o32936
-rw-------  1 curso-116 cluster    51 jun 11 18:58 pwd12dig256thr1min1nod.e32922
-rw-------  1 curso-116 cluster     0 jun 11 18:56 pwd12dig256thr1min1nod.o32922
-rw-r--r--  1 curso-116 cluster   489 jun 13 21:12 threads_con_sleep.c
