Passowrd digits: 12
T# 221: Loop from 863281250000.000000 to 867187500000.000000
T# 233: Loop from 910156250000.000000 to 914062500000.000000
T# 209: Loop from 816406250000.000000 to 820312500000.000000
T# 2: Loop from 7812500000.000000 to 11718750000.000000
T# 8: Loop from 31250000000.000000 to 35156250000.000000
T# 20: Loop from 78125000000.000000 to 82031250000.000000
T# 39: Loop from 152343750000.000000 to 156250000000.000000
T# 35: Loop from 136718750000.000000 to 140625000000.000000
T# 58: Loop from 226562500000.000000 to 230468750000.000000
T# 69: Loop from 269531250000.000000 to 273437500000.000000
T# 78: Loop from 304687500000.000000 to 308593750000.000000
T# 84: Loop from 328125000000.000000 to 332031250000.000000
T# 94: Loop from 367187500000.000000 to 371093750000.000000
T# 205: Loop from 800781250000.000000 to 804687500000.000000
T# 114: Loop from 445312500000.000000 to 449218750000.000000
T# 122: Loop from 476562500000.000000 to 480468750000.000000
T# 135: Loop from 527343750000.000000 to 531250000000.000000
T# 143: Loop from 558593750000.000000 to 562500000000.000000
T# 153: Loop from 597656250000.000000 to 601562500000.000000
T# 163: Loop from 636718750000.000000 to 640625000000.000000
T# 175: Loop from 683593750000.000000 to 687500000000.000000
T# 177: Loop from 691406250000.000000 to 695312500000.000000
T# 187: Loop from 730468750000.000000 to 734375000000.000000
T# 192: Loop from 750000000000.000000 to 753906250000.000000
T# 219: Loop from 855468750000.000000 to 859375000000.000000
T# 245: Loop from 957031250000.000000 to 960937500000.000000
T# 223: Loop from 871093750000.000000 to 875000000000.000000
T# 240: Loop from 937500000000.000000 to 941406250000.000000
T# 206: Loop from 804687500000.000000 to 808593750000.000000
T# 228: Loop from 890625000000.000000 to 894531250000.000000
T# 207: Loop from 808593750000.000000 to 812500000000.000000
T# 241: Loop from 941406250000.000000 to 945312500000.000000
T# 210: Loop from 820312500000.000000 to 824218750000.000000
T# 231: Loop from 902343750000.000000 to 906250000000.000000
T# 249: Loop from 972656250000.000000 to 976562500000.000000
T# 0: Loop from 0.000000 to 3906250000.000000
T# 215: Loop from 839843750000.000000 to 843750000000.000000
T# 220: Loop from 859375000000.000000 to 863281250000.000000
T# 217: Loop from 847656250000.000000 to 851562500000.000000
T# 244: Loop from 953125000000.000000 to 957031250000.000000
T# 225: Loop from 878906250000.000000 to 882812500000.000000
T# 200: Loop from 781250000000.000000 to 785156250000.000000
T# 247: Loop from 964843750000.000000 to 968750000000.000000
T# 218: Loop from 851562500000.000000 to 855468750000.000000
T# 236: Loop from 921875000000.000000 to 925781250000.000000
T# 213: Loop from 832031250000.000000 to 835937500000.000000
T# 234: Loop from 914062500000.000000 to 917968750000.000000
T# 238: Loop from 929687500000.000000 to 933593750000.000000
T# 253: Loop from 988281250000.000000 to 992187500000.000000
T# 235: Loop from 917968750000.000000 to 921875000000.000000
T# 232: Loop from 906250000000.000000 to 910156250000.000000
T# 248: Loop from 968750000000.000000 to 972656250000.000000
T# 216: Loop from 843750000000.000000 to 847656250000.000000
T# 214: Loop from 835937500000.000000 to 839843750000.000000
T# 1: Loop from 3906250000.000000 to 7812500000.000000
T# 3: Loop from 11718750000.000000 to 15625000000.000000
T# 222: Loop from 867187500000.000000 to 871093750000.000000
T# 5: Loop from 19531250000.000000 to 23437500000.000000
T# 201: Loop from 785156250000.000000 to 789062500000.000000
T# 6: Loop from 23437500000.000000 to 27343750000.000000
T# 7: Loop from 27343750000.000000 to 31250000000.000000
T# 226: Loop from 882812500000.000000 to 886718750000.000000
T# 4: Loop from 15625000000.000000 to 19531250000.000000
T# 10: Loop from 39062500000.000000 to 42968750000.000000
T# 9: Loop from 35156250000.000000 to 39062500000.000000
T# 11: Loop from 42968750000.000000 to 46875000000.000000
T# 12: Loop from 46875000000.000000 to 50781250000.000000
T# 13: Loop from 50781250000.000000 to 54687500000.000000
T# 14: Loop from 54687500000.000000 to 58593750000.000000
T# 15: Loop from 58593750000.000000 to 62500000000.000000
T# 16: Loop from 62500000000.000000 to 66406250000.000000
T# 211: Loop from 824218750000.000000 to 828125000000.000000
T# 17: Loop from 66406250000.000000 to 70312500000.000000
T# 18: Loop from 70312500000.000000 to 74218750000.000000
T# 22: Loop from 85937500000.000000 to 89843750000.000000
T# 19: Loop from 74218750000.000000 to 78125000000.000000
T# 21: Loop from 82031250000.000000 to 85937500000.000000
T# 23: Loop from 89843750000.000000 to 93750000000.000000
T# 24: Loop from 93750000000.000000 to 97656250000.000000
T# 25: Loop from 97656250000.000000 to 101562500000.000000
T# 27: Loop from 105468750000.000000 to 109375000000.000000
T# 26: Loop from 101562500000.000000 to 105468750000.000000
T# 28: Loop from 109375000000.000000 to 113281250000.000000
T# 29: Loop from 113281250000.000000 to 117187500000.000000
T# 204: Loop from 796875000000.000000 to 800781250000.000000
T# 40: Loop from 156250000000.000000 to 160156250000.000000
T# 41: Loop from 160156250000.000000 to 164062500000.000000
T# 30: Loop from 117187500000.000000 to 121093750000.000000
T# 42: Loop from 164062500000.000000 to 167968750000.000000
T# 37: Loop from 144531250000.000000 to 148437500000.000000
T# 36: Loop from 140625000000.000000 to 144531250000.000000
T# 43: Loop from 167968750000.000000 to 171875000000.000000
T# 38: Loop from 148437500000.000000 to 152343750000.000000
T# 254: Loop from 992187500000.000000 to 996093750000.000000
T# 52: Loop from 203125000000.000000 to 207031250000.000000
T# 32: Loop from 125000000000.000000 to 128906250000.000000
T# 33: Loop from 128906250000.000000 to 132812500000.000000
T# 57: Loop from 222656250000.000000 to 226562500000.000000
T# 55: Loop from 214843750000.000000 to 218750000000.000000
T# 31: Loop from 121093750000.000000 to 125000000000.000000
T# 44: Loop from 171875000000.000000 to 175781250000.000000
T# 34: Loop from 132812500000.000000 to 136718750000.000000
T# 45: Loop from 175781250000.000000 to 179687500000.000000
T# 46: Loop from 179687500000.000000 to 183593750000.000000
T# 47: Loop from 183593750000.000000 to 187500000000.000000
T# 48: Loop from 187500000000.000000 to 191406250000.000000
T# 49: Loop from 191406250000.000000 to 195312500000.000000
T# 208: Loop from 812500000000.000000 to 816406250000.000000
T# 50: Loop from 195312500000.000000 to 199218750000.000000
T# 53: Loop from 207031250000.000000 to 210937500000.000000
T# 54: Loop from 210937500000.000000 to 214843750000.000000
T# 246: Loop from 960937500000.000000 to 964843750000.000000
T# 71: Loop from 277343750000.000000 to 281250000000.000000
T# 51: Loop from 199218750000.000000 to 203125000000.000000
T# 56: Loop from 218750000000.000000 to 222656250000.000000
T# 72: Loop from 281250000000.000000 to 285156250000.000000
T# 59: Loop from 230468750000.000000 to 234375000000.000000
T# 73: Loop from 285156250000.000000 to 289062500000.000000
T# 60: Loop from 234375000000.000000 to 238281250000.000000
T# 61: Loop from 238281250000.000000 to 242187500000.000000
T# 74: Loop from 289062500000.000000 to 292968750000.000000
T# 75: Loop from 292968750000.000000 to 296875000000.000000
T# 62: Loop from 242187500000.000000 to 246093750000.000000
T# 202: Loop from 789062500000.000000 to 792968750000.000000
T# 77: Loop from 300781250000.000000 to 304687500000.000000
T# 79: Loop from 308593750000.000000 to 312500000000.000000
T# 80: Loop from 312500000000.000000 to 316406250000.000000
T# 81: Loop from 316406250000.000000 to 320312500000.000000
T# 76: Loop from 296875000000.000000 to 300781250000.000000
T# 82: Loop from 320312500000.000000 to 324218750000.000000
T# 65: Loop from 253906250000.000000 to 257812500000.000000
T# 227: Loop from 886718750000.000000 to 890625000000.000000
T# 83: Loop from 324218750000.000000 to 328125000000.000000
T# 68: Loop from 265625000000.000000 to 269531250000.000000
T# 63: Loop from 246093750000.000000 to 250000000000.000000
T# 64: Loop from 250000000000.000000 to 253906250000.000000
T# 66: Loop from 257812500000.000000 to 261718750000.000000
T# 67: Loop from 261718750000.000000 to 265625000000.000000
T# 85: Loop from 332031250000.000000 to 335937500000.000000
T# 70: Loop from 273437500000.000000 to 277343750000.000000
T# 86: Loop from 335937500000.000000 to 339843750000.000000
T# 87: Loop from 339843750000.000000 to 343750000000.000000
T# 89: Loop from 347656250000.000000 to 351562500000.000000
T# 88: Loop from 343750000000.000000 to 347656250000.000000
T# 90: Loop from 351562500000.000000 to 355468750000.000000
T# 243: Loop from 949218750000.000000 to 953125000000.000000
T# 91: Loop from 355468750000.000000 to 359375000000.000000
T# 92: Loop from 359375000000.000000 to 363281250000.000000
T# 93: Loop from 363281250000.000000 to 367187500000.000000
T# 96: Loop from 375000000000.000000 to 378906250000.000000
T# 97: Loop from 378906250000.000000 to 382812500000.000000
T# 95: Loop from 371093750000.000000 to 375000000000.000000
T# 99: Loop from 386718750000.000000 to 390625000000.000000
T# 100: Loop from 390625000000.000000 to 394531250000.000000
T# 101: Loop from 394531250000.000000 to 398437500000.000000
T# 102: Loop from 398437500000.000000 to 402343750000.000000
T# 103: Loop from 402343750000.000000 to 406250000000.000000
T# 98: Loop from 382812500000.000000 to 386718750000.000000
T# 104: Loop from 406250000000.000000 to 410156250000.000000
T# 105: Loop from 410156250000.000000 to 414062500000.000000
T# 106: Loop from 414062500000.000000 to 417968750000.000000
T# 107: Loop from 417968750000.000000 to 421875000000.000000
T# 111: Loop from 433593750000.000000 to 437500000000.000000
T# 250: Loop from 976562500000.000000 to 980468750000.000000
T# 108: Loop from 421875000000.000000 to 425781250000.000000
T# 109: Loop from 425781250000.000000 to 429687500000.000000
T# 110: Loop from 429687500000.000000 to 433593750000.000000
T# 112: Loop from 437500000000.000000 to 441406250000.000000
T# 113: Loop from 441406250000.000000 to 445312500000.000000
T# 115: Loop from 449218750000.000000 to 453125000000.000000
T# 116: Loop from 453125000000.000000 to 457031250000.000000
T# 117: Loop from 457031250000.000000 to 460937500000.000000
T# 119: Loop from 464843750000.000000 to 468750000000.000000
T# 120: Loop from 468750000000.000000 to 472656250000.000000
T# 118: Loop from 460937500000.000000 to 464843750000.000000
T# 123: Loop from 480468750000.000000 to 484375000000.000000
T# 125: Loop from 488281250000.000000 to 492187500000.000000
T# 124: Loop from 484375000000.000000 to 488281250000.000000
T# 121: Loop from 472656250000.000000 to 476562500000.000000
T# 203: Loop from 792968750000.000000 to 796875000000.000000
T# 127: Loop from 496093750000.000000 to 500000000000.000000
T# 126: Loop from 492187500000.000000 to 496093750000.000000
T# 129: Loop from 503906250000.000000 to 507812500000.000000
T# 130: Loop from 507812500000.000000 to 511718750000.000000
T# 131: Loop from 511718750000.000000 to 515625000000.000000
T# 132: Loop from 515625000000.000000 to 519531250000.000000
T# 133: Loop from 519531250000.000000 to 523437500000.000000
T# 136: Loop from 531250000000.000000 to 535156250000.000000
T# 242: Loop from 945312500000.000000 to 949218750000.000000
T# 128: Loop from 500000000000.000000 to 503906250000.000000
T# 137: Loop from 535156250000.000000 to 539062500000.000000
T# 138: Loop from 539062500000.000000 to 542968750000.000000
T# 139: Loop from 542968750000.000000 to 546875000000.000000
T# 229: Loop from 894531250000.000000 to 898437500000.000000
T# 134: Loop from 523437500000.000000 to 527343750000.000000
T# 141: Loop from 550781250000.000000 to 554687500000.000000
T# 142: Loop from 554687500000.000000 to 558593750000.000000
T# 140: Loop from 546875000000.000000 to 550781250000.000000
T# 144: Loop from 562500000000.000000 to 566406250000.000000
T# 145: Loop from 566406250000.000000 to 570312500000.000000
T# 146: Loop from 570312500000.000000 to 574218750000.000000
T# 147: Loop from 574218750000.000000 to 578125000000.000000
T# 150: Loop from 585937500000.000000 to 589843750000.000000
T# 151: Loop from 589843750000.000000 to 593750000000.000000
T# 152: Loop from 593750000000.000000 to 597656250000.000000
T# 149: Loop from 582031250000.000000 to 585937500000.000000
T# 154: Loop from 601562500000.000000 to 605468750000.000000
T# 148: Loop from 578125000000.000000 to 582031250000.000000
T# 156: Loop from 609375000000.000000 to 613281250000.000000
T# 155: Loop from 605468750000.000000 to 609375000000.000000
T# 157: Loop from 613281250000.000000 to 617187500000.000000
T# 212: Loop from 828125000000.000000 to 832031250000.000000
T# 230: Loop from 898437500000.000000 to 902343750000.000000
T# 159: Loop from 621093750000.000000 to 625000000000.000000
T# 160: Loop from 625000000000.000000 to 628906250000.000000
T# 162: Loop from 632812500000.000000 to 636718750000.000000
T# 164: Loop from 640625000000.000000 to 644531250000.000000
T# 161: Loop from 628906250000.000000 to 632812500000.000000
T# 158: Loop from 617187500000.000000 to 621093750000.000000
T# 166: Loop from 648437500000.000000 to 652343750000.000000
T# 165: Loop from 644531250000.000000 to 648437500000.000000
T# 167: Loop from 652343750000.000000 to 656250000000.000000
T# 168: Loop from 656250000000.000000 to 660156250000.000000
T# 170: Loop from 664062500000.000000 to 667968750000.000000
T# 173: Loop from 675781250000.000000 to 679687500000.000000
T# 169: Loop from 660156250000.000000 to 664062500000.000000
T# 224: Loop from 875000000000.000000 to 878906250000.000000
T# 171: Loop from 667968750000.000000 to 671875000000.000000
T# 176: Loop from 687500000000.000000 to 691406250000.000000
T# 174: Loop from 679687500000.000000 to 683593750000.000000
T# 178: Loop from 695312500000.000000 to 699218750000.000000
T# 172: Loop from 671875000000.000000 to 675781250000.000000
T# 239: Loop from 933593750000.000000 to 937500000000.000000
T# 180: Loop from 703125000000.000000 to 707031250000.000000
T# 179: Loop from 699218750000.000000 to 703125000000.000000
T# 181: Loop from 707031250000.000000 to 710937500000.000000
T# 183: Loop from 714843750000.000000 to 718750000000.000000
T# 185: Loop from 722656250000.000000 to 726562500000.000000
T# 182: Loop from 710937500000.000000 to 714843750000.000000
T# 186: Loop from 726562500000.000000 to 730468750000.000000
T# 184: Loop from 718750000000.000000 to 722656250000.000000
T# 189: Loop from 738281250000.000000 to 742187500000.000000
T# 188: Loop from 734375000000.000000 to 738281250000.000000
T# 237: Loop from 925781250000.000000 to 929687500000.000000
T# 252: Loop from 984375000000.000000 to 988281250000.000000
T# 195: Loop from 761718750000.000000 to 765625000000.000000
T# 194: Loop from 757812500000.000000 to 761718750000.000000
T# 190: Loop from 742187500000.000000 to 746093750000.000000
T# 191: Loop from 746093750000.000000 to 750000000000.000000
T# 193: Loop from 753906250000.000000 to 757812500000.000000
T# 255: Loop from 996093750000.000000 to 1000000000000.000000
T# 197: Loop from 769531250000.000000 to 773437500000.000000
T# 199: Loop from 777343750000.000000 to 781250000000.000000
T# 198: Loop from 773437500000.000000 to 777343750000.000000
T# 196: Loop from 765625000000.000000 to 769531250000.000000
T# 251: Loop from 980468750000.000000 to 984375000000.000000
The password is: 100000000000
Program took 462.033228 seconds to execute 
