Passowrd digits: 11
T# 0: Loop from 0.000000 to 25000000000.000000
T# 2: Loop from 50000000000.000000 to 75000000000.000000
T# 1: Loop from 25000000000.000000 to 50000000000.000000
T# 3: Loop from 75000000000.000000 to 100000000000.000000
The password is: 10000000000
Program took 265.618281 seconds to execute 
