Passowrd digits: 11
T# 15: Loop from 93750000000.000000 to 100000000000.000000
T# 0: Loop from 0.000000 to 6250000000.000000
T# 14: Loop from 87500000000.000000 to 93750000000.000000
T# 5: Loop from 31250000000.000000 to 37500000000.000000
T# 7: Loop from 43750000000.000000 to 50000000000.000000
T# 10: Loop from 62500000000.000000 to 68750000000.000000
T# 4: Loop from 25000000000.000000 to 31250000000.000000
T# 3: Loop from 18750000000.000000 to 25000000000.000000
T# 11: Loop from 68750000000.000000 to 75000000000.000000
T# 2: Loop from 12500000000.000000 to 18750000000.000000
T# 12: Loop from 75000000000.000000 to 81250000000.000000
T# 9: Loop from 56250000000.000000 to 62500000000.000000
T# 1: Loop from 6250000000.000000 to 12500000000.000000
T# 13: Loop from 81250000000.000000 to 87500000000.000000
T# 8: Loop from 50000000000.000000 to 56250000000.000000
T# 6: Loop from 37500000000.000000 to 43750000000.000000
The password is: 10000000000
Program took 107.542444 seconds to execute 
